{
	"api_response": {
		"items": [
			{
				"image_src": "img/q.jpg",
				"href": "#",
				"data": "21.08.2017 - 21.09.2017",
				"labels": [
					"t1", "t2", "t3"
				],
				"text": "Официальные правила «Скидка ко Дню Независимости»"
			},
			{
				"image_src": "img/index.jpg",
				"href": "#",
				"data": "21.08.2017 - 21.09.2017",
				"labels": [
					"t1", "t3"
				],
				"text": "Официальные правила «Скидка ко Дню Независимости»"
			},
			{
				"image_src": "img/q.jpg",
				"href": "#",
				"data": "21.08.2017 - 21.09.2017",
				"labels": [
					"t1"
				],
				"text": "Программа лояльности"
			}
		],
		"filter": {
			"dropdowns": [
				{
					"name": "drpdwn-1",
					"label": "Страна",
					"value": "выберите страну",
					"sort": "",
					"options": [
						{
							"text": "Все",
							"value": "val1"
						},
						{
							"text": "Украина",
							"value": "val2"
						},
						{
							"text": "Китай",
							"value": "val3"
						}
					]
				}
			],

			"search": {
				"name": "search",
				"placeholder": "Поиск..."
			},

			"labels": [
				{
					"text": "все",
					"count": "",
					"type": "all",
					"name": "lbl-1"
				},
				{
					"text": "пункт",
					"count": "1",
					"type": "t1",
					"name": "lbl-2",
					"active": true
				},
				{
					"text": "пункт",
					"count": "2",
					"type": "t2",
					"name": "lbl-3"
				},
				{
					"text": "пункт",
					"count": "3",
					"type": "t3",
					"name": "lbl-4"
				}
			]
		},

		"pager": {
			"total_pages_count": 11,
			"current_page_number": 10,
			"load_more": "показать еще"
		},

		"nothing_to_show": "Немає чого показати.",

		"request": {
			"custom": "overwrited value",
			"key1": "value1",
			"key2": "value2"
		}
	}
}
