{
	"api_response": {
		"items": [
			{
				"text" : 1
			},
			{
				"text" : 2
			},
			{
				"text" : 3
			},
			{
				"text" : 4
			},
			{
				"text" : 5
			},
			{
				"text" : 6
			}
		],

		"filter": {
			"dropdowns": [
				{
					"name": "drpdwn-1",
					"label": "Страна",
					"options": [
						{
							"text": "Все",
							"value": "val1"
						},
						{
							"text": "Украина",
							"value": "val2"
						},
						{
							"text": "Китай",
							"value": "val3"
						}
					]
				}
			],

			"search": {
				"name": "search",
				"placeholder": "Поиск..."
			},

			"labels": [
				{
					"text": "все",
					"count": "9771",
					"type": "all",
					"name": "lbl-1"
				},
				{
					"text": "toy",
					"count": "96",
					"type": "toy",
					"name": "lbl-2",
					"active": true
				},
				{
					"text": "baby",
					"count": "8675",
					"type": "baby",
					"name": "lbl-3"
				},
				{
					"text": "fashion",
					"count": "100",
					"type": "fashion",
					"name": "lbl-4"
				}
			]
		},

		"pager": {
			"total_pages_count": 11,
			"current_page_number": 10,
			"load_more": "показати ще"
		},

		"nothing_to_show": "Немає чого показати.",

		"request": {
			"custom": "overwrited value",
			"key1": "value1",
			"key2": "value2"
		}
	}
}
