{
	"api_response": {
		"items": [
			{
				"img" : "./img/field.jpg"
			}
		],

		"nothing_to_show": "Немає чого показати.",

		"request": {
			"custom": "overwrited value",
			"key1": "value1",
			"key2": "value2"
		}
	}
}
